{
    "testPlanName": "testplan_usbstor",
    "tests": [
        {
            "testName": "Benchmark.fio",
            "spec": "usb"
        },
        {
            "testName": "Benchmark.Bonnie",
            "spec":    "usb"
        },
        {
            "testName": "Benchmark.IOzone",
            "spec":    "usb"
        },
        {
            "testName": "Benchmark.ffsb",
            "spec":    "usb"
        },
        {
            "testName": "Benchmark.Tiobench",
            "spec":    "usb"
        },
        {
            "testName": "Functional.aiostress",
            "spec":    "usb"
        },
        {
            "testName": "Functional.synctest",
            "spec":    "usb"
        },
        {
            "testName": "Benchmark.Interbench",
            "spec":    "usb"
        },
        {
            "testName": "Benchmark.dbench",
            "spec":    "usb"
        }

    ]
}
